{
    "data": [
        {
            "status": "notBilled",
            "createdAt": "2017-12-08T14:54:32-03:00",
            "updatedAt": "2024-01-11T17:18:04-03:00",
            "saleId": 13,
            "amount": 148.5,
            "sellerId": 13,
            "quantity": 2.75,
            "productId": 2106,
            "customerId": 14,
            "requesterId": 1,
            "referenceDate": "2017-12-08T10:30:00-03:00",
            "discountValue": 16.5,
            "originalAmount": 165,
            "notes": null
        },
        {
            "status": "notBilled",
            "createdAt": "2017-12-08T14:57:26-03:00",
            "updatedAt": "2024-01-11T17:18:04-03:00",
            "saleId": 14,
            "amount": 54,
            "sellerId": 13,
            "quantity": 1,
            "productId": 2106,
            "customerId": 14,
            "requesterId": 1,
            "referenceDate": "2017-12-08T16:00:00-03:00",
            "discountValue": 6,
            "originalAmount": 60,
            "notes": null
        },
        {
            "status": "billed",
            "createdAt": "2017-12-12T11:20:34-03:00",
            "updatedAt": "2024-01-11T17:18:04-03:00",
            "saleId": 16,
            "amount": 3.5,
            "sellerId": null,
            "quantity": 5,
            "productId": 2108,
            "customerId": 17,
            "requesterId": 3,
            "referenceDate": "2017-12-12T11:20:00-03:00",
            "discountValue": 0,
            "originalAmount": 3.5,
            "notes": null
        },
        {
            "status": "billed",
            "createdAt": "2017-12-12T11:26:28-03:00",
            "updatedAt": "2024-01-11T17:18:04-03:00",
            "saleId": 17,
            "amount": 3.5,
            "sellerId": null,
            "quantity": 5,
            "productId": 2108,
            "customerId": 17,
            "requesterId": 3,
            "referenceDate": "2017-12-12T11:26:00-03:00",
            "discountValue": 0,
            "originalAmount": 3.5,
            "notes": null
        },
        {
            "status": "billed",
            "createdAt": "2017-12-12T11:28:21-03:00",
            "updatedAt": "2024-01-11T17:18:04-03:00",
            "saleId": 18,
            "amount": 0.7,
            "sellerId": null,
            "quantity": 1,
            "productId": 2108,
            "customerId": 17,
            "requesterId": 3,
            "referenceDate": "2017-12-12T11:28:00-03:00",
            "discountValue": 0,
            "originalAmount": 0.7,
            "notes": null
        },
        {
            "status": "billed",
            "createdAt": "2017-12-12T11:39:28-03:00",
            "updatedAt": "2024-01-11T17:18:04-03:00",
            "saleId": 19,
            "amount": 0.7,
            "sellerId": null,
            "quantity": 1,
            "productId": 2108,
            "customerId": 17,
            "requesterId": 3,
            "referenceDate": "2017-12-12T11:39:00-03:00",
            "discountValue": 0,
            "originalAmount": 0.7,
            "notes": null
        },
        {
            "status": "billed",
            "createdAt": "2017-12-12T11:41:57-03:00",
            "updatedAt": "2024-01-11T17:18:04-03:00",
            "saleId": 20,
            "amount": 0.7,
            "sellerId": null,
            "quantity": 1,
            "productId": 2108,
            "customerId": 17,
            "requesterId": 3,
            "referenceDate": "2017-12-12T11:41:00-03:00",
            "discountValue": 0,
            "originalAmount": 0.7,
            "notes": null
        },
        {
            "status": "billed",
            "createdAt": "2017-12-12T12:00:30-03:00",
            "updatedAt": "2024-01-11T17:18:04-03:00",
            "saleId": 21,
            "amount": 0.7,
            "sellerId": null,
            "quantity": 1,
            "productId": 2108,
            "customerId": 17,
            "requesterId": 3,
            "referenceDate": "2017-12-12T12:00:00-03:00",
            "discountValue": 0,
            "originalAmount": 0.7,
            "notes": null
        },
        {
            "status": "billed",
            "createdAt": "2017-12-12T14:46:02-03:00",
            "updatedAt": "2024-01-11T17:18:04-03:00",
            "saleId": 22,
            "amount": 0.7,
            "sellerId": null,
            "quantity": 1,
            "productId": 2108,
            "customerId": 17,
            "requesterId": 3,
            "referenceDate": "2017-12-12T02:46:00-03:00",
            "discountValue": 0,
            "originalAmount": 0.7,
            "notes": null
        },
        {
            "status": "billed",
            "createdAt": "2017-12-12T14:55:27-03:00",
            "updatedAt": "2024-01-11T17:18:04-03:00",
            "saleId": 23,
            "amount": 0.7,
            "sellerId": null,
            "quantity": 1,
            "productId": 2108,
            "customerId": 17,
            "requesterId": 3,
            "referenceDate": "2017-12-12T02:55:00-03:00",
            "discountValue": 0,
            "originalAmount": 0.7,
            "notes": null
        },
        {
            "status": "billed",
            "createdAt": "2017-12-12T15:11:00-03:00",
            "updatedAt": "2024-01-11T17:18:04-03:00",
            "saleId": 24,
            "amount": 0.7,
            "sellerId": null,
            "quantity": 1,
            "productId": 2108,
            "customerId": 17,
            "requesterId": 3,
            "referenceDate": "2017-12-12T03:11:00-03:00",
            "discountValue": 0,
            "originalAmount": 0.7,
            "notes": null
        },
        {
            "status": "billed",
            "createdAt": "2017-12-12T15:46:55-03:00",
            "updatedAt": "2024-01-11T17:18:04-03:00",
            "saleId": 25,
            "amount": 0.7,
            "sellerId": null,
            "quantity": 1,
            "productId": 2108,
            "customerId": 17,
            "requesterId": 3,
            "referenceDate": "2017-12-12T03:46:00-03:00",
            "discountValue": 0,
            "originalAmount": 0.7,
            "notes": null
        },
        {
            "status": "billed",
            "createdAt": "2017-12-12T16:15:29-03:00",
            "updatedAt": "2024-01-11T17:18:04-03:00",
            "saleId": 26,
            "amount": 0.7,
            "sellerId": null,
            "quantity": 1,
            "productId": 2108,
            "customerId": 17,
            "requesterId": 3,
            "referenceDate": "2017-12-12T04:15:00-03:00",
            "discountValue": 0,
            "originalAmount": 0.7,
            "notes": null
        },
        {
            "status": "billed",
            "createdAt": "2017-12-14T10:44:16-03:00",
            "updatedAt": "2024-01-11T17:18:04-03:00",
            "saleId": 39,
            "amount": 0.7,
            "sellerId": null,
            "quantity": 1,
            "productId": 2108,
            "customerId": 17,
            "requesterId": 3,
            "referenceDate": "2017-12-14T10:44:00-03:00",
            "discountValue": 0,
            "originalAmount": 0.7,
            "notes": null
        },
        {
            "status": "billed",
            "createdAt": "2017-12-20T18:11:33-03:00",
            "updatedAt": "2024-01-11T17:18:04-03:00",
            "saleId": 40,
            "amount": 900,
            "sellerId": 13,
            "quantity": 9,
            "productId": 2106,
            "customerId": 23,
            "requesterId": 6,
            "referenceDate": "2017-12-21T00:00:00-03:00",
            "discountValue": 0,
            "originalAmount": 900,
            "notes": null
        },
        {
            "status": "billed",
            "createdAt": "2017-12-20T18:11:51-03:00",
            "updatedAt": "2024-01-11T17:18:04-03:00",
            "saleId": 41,
            "amount": 4,
            "sellerId": 13,
            "quantity": 1,
            "productId": 2109,
            "customerId": 23,
            "requesterId": 6,
            "referenceDate": "2017-12-20T08:00:00-03:00",
            "discountValue": 0,
            "originalAmount": 4,
            "notes": null
        },
        {
            "status": "notBilled",
            "createdAt": "2017-12-21T11:29:23-03:00",
            "updatedAt": "2024-01-11T17:18:04-03:00",
            "saleId": 42,
            "amount": 324,
            "sellerId": 13,
            "quantity": 6,
            "productId": 2106,
            "customerId": 14,
            "requesterId": 1,
            "referenceDate": "2017-12-25T08:00:00-03:00",
            "discountValue": 36,
            "originalAmount": 360,
            "notes": null
        },
        {
            "status": "billed",
            "createdAt": "2017-12-28T15:41:42-03:00",
            "updatedAt": "2024-01-11T17:18:04-03:00",
            "saleId": 239,
            "amount": 0.7,
            "sellerId": null,
            "quantity": 1,
            "productId": 2108,
            "customerId": 17,
            "requesterId": 3,
            "referenceDate": "2017-12-28T03:41:00-03:00",
            "discountValue": 0,
            "originalAmount": 0.7,
            "notes": null
        },
        {
            "status": "billed",
            "createdAt": "2017-12-28T16:49:57-03:00",
            "updatedAt": "2024-01-11T17:18:04-03:00",
            "saleId": 240,
            "amount": 0.7,
            "sellerId": null,
            "quantity": 1,
            "productId": 2108,
            "customerId": 17,
            "requesterId": 3,
            "referenceDate": "2017-12-28T04:49:00-03:00",
            "discountValue": 0,
            "originalAmount": 0.7,
            "notes": null
        },
        {
            "status": "billed",
            "createdAt": "2017-12-28T16:51:04-03:00",
            "updatedAt": "2024-01-11T17:18:04-03:00",
            "saleId": 241,
            "amount": 0.7,
            "sellerId": null,
            "quantity": 1,
            "productId": 2108,
            "customerId": 17,
            "requesterId": 3,
            "referenceDate": "2017-12-28T04:51:00-03:00",
            "discountValue": 0,
            "originalAmount": 0.7,
            "notes": null
        }
    ],
    "pagination": {
        "itemPerPage": 20,
        "currentPage": 1,
        "totalPages": 459,
        "totalItems": 9174
    }
}
